…
### Use roundrobin function

- roundrobin


```r
roundrobin(InsectSprays, key = spray)
```

```
## # A tibble: 36 × 4
##    Var1  Var2           data_Var1          data_Var2
##    <fct> <fct> <list<tibble[,1]>> <list<tibble[,1]>>
##  1 A     A               [12 × 1]           [12 × 1]
##  2 B     A               [12 × 1]           [12 × 1]
##  3 C     A               [12 × 1]           [12 × 1]
##  4 D     A               [12 × 1]           [12 × 1]
##  5 E     A               [12 × 1]           [12 × 1]
##  6 F     A               [12 × 1]           [12 × 1]
##  7 A     B               [12 × 1]           [12 × 1]
##  8 B     B               [12 × 1]           [12 × 1]
##  9 C     B               [12 × 1]           [12 × 1]
## 10 D     B               [12 × 1]           [12 × 1]
## # ℹ 26 more rows
```
…
